dplyr & data wrangling
…
```
## [1] "tbl_df"     "tbl"        "data.frame"
```

---

## Fancy Printing

```r
tbl_iris
```

```
## # A tibble: 150 x 5
##    Sepal.Length Sepal.Width Petal.Length Petal.Width Species
##           <dbl>       <dbl>        <dbl>       <dbl> <fct>  
##  1         5.10        3.50         1.40       0.200 setosa 
##  2         4.90        3.00         1.40       0.200 setosa 
##  3         4.70        3.20         1.30       0.200 setosa 
##  4         4.60        3.10         1.50       0.200 setosa 
##  5         5.00        3.60         1.40       0.200 setosa 
##  6         5.40        3.90         1.70       0.400 setosa 
##  7         4.60        3.40         1.40       0.300 setosa 
##  8         5.00        3.40         1.50       0.200 setosa 
##  9         4.40        2.90         1.40       0.200 setosa 
## 10         4.90        3.10         1.50       0.100 setosa 
## # ... with 140 more rows
```
…
```
## # A tibble: 1 x 5
##   Sepal.Length Sepal.Width Petal.Length Petal.Width Species
##          <dbl>       <dbl>        <dbl>       <dbl> <fct>  
## 1         5.10        3.50         1.40       0.200 setosa
```

```r
tbl_iris[,"Species"]
```

```
## # A tibble: 150 x 1
##    Species
##    <fct>  
##  1 setosa 
##  2 setosa 
##  3 setosa 
##  4 setosa 
##  5 setosa 
##  6 setosa 
##  7 setosa 
##  8 setosa 
##  9 setosa 
## 10 setosa 
## # ... with 140 more rows
```
…
---

## Example Data

We will demonstrate dplyr's functionality using the nycflights13 data.

```r
library(dplyr)
library(nycflights13)

flights
```

```
## # A tibble: 336,776 x 19
##     year month   day dep_time sched_dep_time dep_delay arr_time sched_arr_time
##    <int> <int> <int>    <int>          <int>     <dbl>    <int>          <int>
##  1  2013     1     1      517            515      2.00      830            819
##  2  2013     1     1      533            529      4.00      850            830
##  3  2013     1     1      542            540      2.00      923            850
##  4  2013     1     1      544            545     -1.00     1004           1022
##  5  2013     1     1      554            600     -6.00      812            837
##  6  2013     1     1      554            558     -4.00      740            728
##  7  2013     1     1      555            600     -5.00      913            854
##  8  2013     1     1      557            600     -3.00      709            723
##  9  2013     1     1      557            600     -3.00      838            846
## 10  2013     1     1      558            600     -2.00      753            745
## # ... with 336,766 more rows, and 11 more variables: arr_delay <dbl>,
## #   carrier <chr>, flight <int>, tailnum <chr>, origin <chr>, dest <chr>,
## #   air_time <dbl>, distance <dbl>, hour <dbl>, minute <dbl>, time_hour <dttm>
```

---

## filter() - March flights

```r
flights %>% filter(month == 3)
```

```
## # A tibble: 28,834 x 19
##     year month   day dep_time sched_dep_time dep_delay arr_time sched_arr_time
##    <int> <int> <int>    <int>          <int>     <dbl>    <int>          <int>
##  1  2013     3     1        4           2159    125         318             56
##  2  2013     3     1       50           2358     52.0       526            438
##  3  2013     3     1      117           2245    152         223           2354
##  4  2013     3     1      454            500   -  6.00      633            648
##  5  2013     3     1      505            515   - 10.0       746            810
##  6  2013     3     1      521            530   -  9.00      813            827
##  7  2013     3     1      537            540   -  3.00      856            850
##  8  2013     3     1      541            545   -  4.00     1014           1023
##  9  2013     3     1      549            600   - 11.0       639            703
## 10  2013     3     1      550            600   - 10.0       747            801
## # ... with 28,824 more rows, and 11 more variables: arr_delay <dbl>,
## #   carrier <chr>, flight <int>, tailnum <chr>, origin <chr>, dest <chr>,
## #   air_time <dbl>, distance <dbl>, hour <dbl>, minute <dbl>, time_hour <dttm>
```

---

## filter() - Flights in the first 7 days of March

```r
flights %>% filter(month == 3, day <= 7)
```

```
## # A tibble: 6,530 x 19
##     year month   day dep_time sched_dep_time dep_delay arr_time sched_arr_time
##    <int> <int> <int>    <int>          <int>     <dbl>    <int>          <int>
##  1  2013     3     1        4           2159    125         318             56
##  2  2013     3     1       50           2358     52.0       526            438
##  3  2013     3     1      117           2245    152         223           2354
##  4  2013     3     1      454            500   -  6.00      633            648
##  5  2013     3     1      505            515   - 10.0       746            810
##  6  2013     3     1      521            530   -  9.00      813            827
##  7  2013     3     1      537            540   -  3.00      856            850
##  8  2013     3     1      541            545   -  4.00     1014           1023
##  9  2013     3     1      549            600   - 11.0       639            703
## 10  2013     3     1      550            600   - 10.0       747            801
## # ... with 6,520 more rows, and 11 more variables: arr_delay <dbl>,
## #   carrier <chr>, flight <int>, tailnum <chr>, origin <chr>, dest <chr>,
## #   air_time <dbl>, distance <dbl>, hour <dbl>, minute <dbl>, time_hour <dttm>
```

---

## filter() - Flights to LAX *or* RDU in March

```r
flights %>% filter(dest == "LAX" | dest == "RDU", month==3)
```

```
## # A tibble: 1,935 x 19
##     year month   day dep_time sched_dep_time dep_delay arr_time sched_arr_time
##    <int> <int> <int>    <int>          <int>     <dbl>    <int>          <int>
##  1  2013     3     1      607            610     -3.00      832            925
##  2  2013     3     1      608            615     -7.00      737            750
##  3  2013     3     1      623            630     -7.00      753            810
##  4  2013     3     1      629            632     -3.00      844            952
##  5  2013     3     1      657            700     -3.00      953           1034
##  6  2013     3     1      714            715     -1.00      939           1037
##  7  2013     3     1      716            710      6.00      958           1035
##  8  2013     3     1      727            730     -3.00     1007           1100
##  9  2013     3     1      803            810     -7.00      923            955
## 10  2013     3     1      823            824     -1.00      954           1014
## # ... with 1,925 more rows, and 11 more variables: arr_delay <dbl>,
## #   carrier <chr>, flight <int>, tailnum <chr>, origin <chr>, dest <chr>,
## #   air_time <dbl>, distance <dbl>, hour <dbl>, minute <dbl>, time_hour <dttm>
```
…
---

## select() - Individual Columns

```r
flights %>% select(year, month, day)
```

```
## # A tibble: 336,776 x 3
##     year month   day
##    <int> <int> <int>
##  1  2013     1     1
##  2  2013     1     1
##  3  2013     1     1
##  4  2013     1     1
##  5  2013     1     1
##  6  2013     1     1
##  7  2013     1     1
##  8  2013     1     1
##  9  2013     1     1
## 10  2013     1     1
## # ... with 336,766 more rows
```

---

## select() - Exclude Columns

```r
flights %>% select(-year, -month, -day)
```

```
## # A tibble: 336,776 x 16
##    dep_time sched_dep_time dep_delay arr_time sched_arr_time arr_delay carrier
##       <int>          <int>     <dbl>    <int>          <int>     <dbl> <chr>  
##  1      517            515      2.00      830            819     11.0  UA     
##  2      533            529      4.00      850            830     20.0  UA     
##  3      542            540      2.00      923            850     33.0  AA     
##  4      544            545     -1.00     1004           1022    -18.0  B6     
##  5      554            600     -6.00      812            837    -25.0  DL     
##  6      554            558     -4.00      740            728     12.0  UA     
##  7      555            600     -5.00      913            854     19.0  B6     
##  8      557            600     -3.00      709            723    -14.0  EV     
##  9      557            600     -3.00      838            846    - 8.00 B6     
## 10      558            600     -2.00      753            745      8.00 AA     
## # ... with 336,766 more rows, and 9 more variables: flight <int>,
## #   tailnum <chr>, origin <chr>, dest <chr>, air_time <dbl>, distance <dbl>,
## #   hour <dbl>, minute <dbl>, time_hour <dttm>
```

---

## select() - Ranges

```r
flights %>% select(year:day)
```

```
## # A tibble: 336,776 x 3
##     year month   day
##    <int> <int> <int>
##  1  2013     1     1
##  2  2013     1     1
##  3  2013     1     1
##  4  2013     1     1
##  5  2013     1     1
##  6  2013     1     1
##  7  2013     1     1
##  8  2013     1     1
##  9  2013     1     1
## 10  2013     1     1
## # ... with 336,766 more rows
```

---

## select() - Exclusion Ranges

```r
flights %>% select(-(year:day))
```

```
## # A tibble: 336,776 x 16
##    dep_time sched_dep_time dep_delay arr_time sched_arr_time arr_delay carrier
##       <int>          <int>     <dbl>    <int>          <int>     <dbl> <chr>  
##  1      517            515      2.00      830            819     11.0  UA     
##  2      533            529      4.00      850            830     20.0  UA     
##  3      542            540      2.00      923            850     33.0  AA     
##  4      544            545     -1.00     1004           1022    -18.0  B6     
##  5      554            600     -6.00      812            837    -25.0  DL     
##  6      554            558     -4.00      740            728     12.0  UA     
##  7      555            600     -5.00      913            854     19.0  B6     
##  8      557            600     -3.00      709            723    -14.0  EV     
##  9      557            600     -3.00      838            846    - 8.00 B6     
## 10      558            600     -2.00      753            745      8.00 AA     
## # ... with 336,766 more rows, and 9 more variables: flight <int>,
## #   tailnum <chr>, origin <chr>, dest <chr>, air_time <dbl>, distance <dbl>,
## #   hour <dbl>, minute <dbl>, time_hour <dttm>
```

---
class: split-50

## select() - Matching

```r
flights %>% select(contains("dep"), 
                   contains("arr"))
```

```
## # A tibble: 336,776 x 7
##    dep_time sched_dep_time dep_delay arr_time sched_arr_time arr_delay carrier
##       <int>          <int>     <dbl>    <int>          <int>     <dbl> <chr>  
##  1      517            515      2.00      830            819     11.0  UA     
##  2      533            529      4.00      850            830     20.0  UA     
##  3      542            540      2.00      923            850     33.0  AA     
##  4      544            545     -1.00     1004           1022    -18.0  B6     
##  5      554            600     -6.00      812            837    -25.0  DL     
##  6      554            558     -4.00      740            728     12.0  UA     
##  7      555            600     -5.00      913            854     19.0  B6     
##  8      557            600     -3.00      709            723    -14.0  EV     
##  9      557            600     -3.00      838            846    - 8.00 B6     
## 10      558            600     -2.00      753            745      8.00 AA     
## # ... with 336,766 more rows
```

---

```r
flights %>% select(starts_with("dep"), 
                   starts_with("arr"))
```

```
## # A tibble: 336,776 x 4
##    dep_time dep_delay arr_time arr_delay
##       <int>     <dbl>    <int>     <dbl>
##  1      517      2.00      830     11.0 
##  2      533      4.00      850     20.0 
##  3      542      2.00      923     33.0 
##  4      544     -1.00     1004    -18.0 
##  5      554     -6.00      812    -25.0 
##  6      554     -4.00      740     12.0 
##  7      555     -5.00      913     19.0 
##  8      557     -3.00      709    -14.0 
##  9      557     -3.00      838    - 8.00
## 10      558     -2.00      753      8.00
## # ... with 336,766 more rows
```

Other helpers: `current_vars`, `starts_with`, `ends_with`, `contains`, `matches`, `num_range`, `one_of`, `everything`.

---

## select_if() - Get non-numeric columns

```r
flights %>% select_if(function(x) !is.numeric(x))
```

```
## # A tibble: 336,776 x 5
##    carrier tailnum origin dest  time_hour          
##    <chr>   <chr>   <chr>  <chr> <dttm>             
##  1 UA      N14228  EWR    IAH   2013-01-01 05:00:00
##  2 UA      N24211  LGA    IAH   2013-01-01 05:00:00
##  3 AA      N619AA  JFK    MIA   2013-01-01 05:00:00
##  4 B6      N804JB  JFK    BQN   2013-01-01 05:00:00
##  5 DL      N668DN  LGA    ATL   2013-01-01 06:00:00
##  6 UA      N39463  EWR    ORD   2013-01-01 05:00:00
##  7 B6      N516JB  EWR    FLL   2013-01-01 06:00:00
##  8 EV      N829AS  LGA    IAD   2013-01-01 06:00:00
##  9 B6      N593JB  JFK    MCO   2013-01-01 06:00:00
## 10 AA      N3ALAA  LGA    ORD   2013-01-01 06:00:00
## # ... with 336,766 more rows
```
…
---

## rename() - Change column names

```r
flights %>% rename(tail_number = tailnum)
```

```
## # A tibble: 336,776 x 19
##     year month   day dep_time sched_dep_time dep_delay arr_time sched_arr_time
##    <int> <int> <int>    <int>          <int>     <dbl>    <int>          <int>
##  1  2013     1     1      517            515      2.00      830            819
##  2  2013     1     1      533            529      4.00      850            830
##  3  2013     1     1      542            540      2.00      923            850
##  4  2013     1     1      544            545     -1.00     1004           1022
##  5  2013     1     1      554            600     -6.00      812            837
##  6  2013     1     1      554            558     -4.00      740            728
##  7  2013     1     1      555            600     -5.00      913            854
##  8  2013     1     1      557            600     -3.00      709            723
##  9  2013     1     1      557            600     -3.00      838            846
## 10  2013     1     1      558            600     -2.00      753            745
## # ... with 336,766 more rows, and 11 more variables: arr_delay <dbl>,
## #   carrier <chr>, flight <int>, tail_number <chr>, origin <chr>, dest <chr>,
## #   air_time <dbl>, distance <dbl>, hour <dbl>, minute <dbl>, time_hour <dttm>
```
 
---

## select() vs. rename()

```r
flights %>% select(tail_number = tailnum)
```

```
## # A tibble: 336,776 x 1
##    tail_number
##    <chr>      
##  1 N14228     
##  2 N24211     
##  3 N619AA     
##  4 N804JB     
##  5 N668DN     
##  6 N39463     
##  7 N516JB     
##  8 N829AS     
##  9 N593JB     
## 10 N3ALAA     
## # ... with 336,766 more rows
```

```r
flights %>% rename(tail_number = tailnum)
```

```
## # A tibble: 336,776 x 19
##     year month   day dep_time sched_dep_time dep_delay arr_time sched_arr_time
##    <int> <int> <int>    <int>          <int>     <dbl>    <int>          <int>
##  1  2013     1     1      517            515      2.00      830            819
##  2  2013     1     1      533            529      4.00      850            830
##  3  2013     1     1      542            540      2.00      923            850
##  4  2013     1     1      544            545     -1.00     1004           1022
##  5  2013     1     1      554            600     -6.00      812            837
##  6  2013     1     1      554            558     -4.00      740            728
##  7  2013     1     1      555            600     -5.00      913            854
##  8  2013     1     1      557            600     -3.00      709            723
##  9  2013     1     1      557            600     -3.00      838            846
## 10  2013     1     1      558            600     -2.00      753            745
## # ... with 336,766 more rows, and 11 more variables: arr_delay <dbl>,
## #   carrier <chr>, flight <int>, tail_number <chr>, origin <chr>, dest <chr>,
## #   air_time <dbl>, distance <dbl>, hour <dbl>, minute <dbl>, time_hour <dttm>
```

---

## arrange() - Sort data

```r
flights %>% filter(month==3,day==2) %>% arrange(origin, dest)
```

```
## # A tibble: 765 x 19
##     year month   day dep_time sched_dep_time dep_delay arr_time sched_arr_time
##    <int> <int> <int>    <int>          <int>     <dbl>    <int>          <int>
##  1  2013     3     2     1336           1329      7.00     1426           1432
##  2  2013     3     2      628            629    - 1.00      837            849
##  3  2013     3     2      637            640    - 3.00      903            915
##  4  2013     3     2      743            745    - 2.00      945           1010
##  5  2013     3     2      857            900    - 3.00     1117           1126
##  6  2013     3     2     1027           1030    - 3.00     1234           1247
##  7  2013     3     2     1134           1145    -11.0      1332           1359
##  8  2013     3     2     1412           1415    - 3.00     1636           1630
##  9  2013     3     2     1633           1636    - 3.00     1848           1908
## 10  2013     3     2     1655           1700    - 5.00     1857           1924
## # ... with 755 more rows, and 11 more variables: arr_delay <dbl>,
## #   carrier <chr>, flight <int>, tailnum <chr>, origin <chr>, dest <chr>,
## #   air_time <dbl>, distance <dbl>, hour <dbl>, minute <dbl>, time_hour <dttm>
```

---

## arrange() & desc() - Descending order

```r
flights %>% filter(month==3,day==2) %>% arrange(desc(origin), dest) %>% select(origin, dest, tailnum)
```

```
## # A tibble: 765 x 3
##    origin dest  tailnum
##    <chr>  <chr> <chr>  
##  1 LGA    ATL   N928AT 
##  2 LGA    ATL   N623DL 
##  3 LGA    ATL   N680DA 
##  4 LGA    ATL   N996AT 
##  5 LGA    ATL   N510MQ 
##  6 LGA    ATL   N663DN 
##  7 LGA    ATL   N942DL 
##  8 LGA    ATL   N511MQ 
##  9 LGA    ATL   N910DE 
## 10 LGA    ATL   N902DE 
## # ... with 755 more rows
```

---

## mutate() - Modify columns

```r
flights %>% select(year:day) %>% mutate(date = paste(year,month,day,sep="/"))
```

```
## # A tibble: 336,776 x 4
##     year month   day date    
##    <int> <int> <int> <chr>   
##  1  2013     1     1 2013/1/1
##  2  2013     1     1 2013/1/1
##  3  2013     1     1 2013/1/1
##  4  2013     1     1 2013/1/1
##  5  2013     1     1 2013/1/1
##  6  2013     1     1 2013/1/1
##  7  2013     1     1 2013/1/1
##  8  2013     1     1 2013/1/1
##  9  2013     1     1 2013/1/1
## 10  2013     1     1 2013/1/1
## # ... with 336,766 more rows
```

---

## transmute() - Create new tibble from existing columns

```r
flights %>% select(year:day) %>% transmute(date = paste(year,month,day,sep="/"))
```

```
## # A tibble: 336,776 x 1
##    date    
##    <chr>   
##  1 2013/1/1
##  2 2013/1/1
##  3 2013/1/1
##  4 2013/1/1
##  5 2013/1/1
##  6 2013/1/1
##  7 2013/1/1
##  8 2013/1/1
##  9 2013/1/1
## 10 2013/1/1
## # ... with 336,766 more rows
```

---

## distinct() - Find unique rows

```r
flights %>% select(origin, dest) %>% distinct() %>% arrange(origin,dest)
```

```
## # A tibble: 224 x 2
##    origin dest 
##    <chr>  <chr>
##  1 EWR    ALB  
##  2 EWR    ANC  
##  3 EWR    ATL  
##  4 EWR    AUS  
##  5 EWR    AVL  
##  6 EWR    BDL  
##  7 EWR    BNA  
##  8 EWR    BOS  
##  9 EWR    BQN  
## 10 EWR    BTV  
## # ... with 214 more rows
```
…
