ggplot2
…
## New data - movies

The data set is comprised of 651 randomly sampled movies produced and 
released before 2016. Data come from [IMDB](http://www.imdb.com/) and 
[Rotten Tomatoes](http://www.rottentomatoes.com/). The codebook is available [here](data/movies/movies.html).

.small[

```r
movies = readr::read_csv("data/movies/movies.csv") 
movies
```

```
## # A tibble: 651 x 32
##    title       title_type  genre  runtime mpaa_rating studio      thtr_rel_year
##    <chr>       <chr>       <chr>    <int> <chr>       <chr>               <int>
##  1 Filly Brown Feature Fi… Drama       80 R           Indomina M…          2013
##  2 The Dish    Feature Fi… Drama      101 PG-13       Warner Bro…          2001
##  3 Waiting fo… Feature Fi… Comedy      84 R           Sony Pictu…          1996
##  4 The Age of… Feature Fi… Drama      139 PG          Columbia P…          1993
##  5 Malevolence Feature Fi… Horror      90 R           Anchor Bay…          2004
##  6 Old Partner Documentary Docum…      78 Unrated     Shcalo Med…          2009
##  7 Lady Jane   Feature Fi… Drama      142 PG-13       Paramount …          1986
##  8 Mad Dog Ti… Feature Fi… Drama       93 R           MGM/United…          1996
##  9 Beauty Is … Documentary Docum…      88 Unrated     Independen…          2012
## 10 The Snowto… Feature Fi… Drama      119 Unrated     IFC Films            2012
## # ... with 641 more rows, and 25 more variables: thtr_rel_month <int>,
## #   thtr_rel_day <int>, dvd_rel_year <int>, dvd_rel_month <int>,
## #   dvd_rel_day <int>, imdb_rating <dbl>, imdb_num_votes <int>,
## #   critics_rating <chr>, critics_score <int>, audience_rating <chr>,
## #   audience_score <int>, best_pic_nom <chr>, best_pic_win <chr>,
## #   best_actor_win <chr>, best_actress_win <chr>, best_dir_win <chr>,
## #   top200_box <chr>, director <chr>, actor1 <chr>, actor2 <chr>, actor3 <chr>,
## #   actor4 <chr>, actor5 <chr>, imdb_url <chr>, rt_url <chr>
```
…
