Spatial data
…
```r
nc  = st_read("data/gis/nc_counties/", quiet=TRUE, stringsAsFactors=FALSE) %>% tbl_df() %>% st_sf()

nc
```

```
## Simple feature collection with 100 features and 8 fields
## geometry type:  MULTIPOLYGON
## dimension:      XY
## bbox:           xmin: -84.32186 ymin: 33.84175 xmax: -75.46003 ymax: 36.58815
## epsg (SRID):    4269
## proj4string:    +proj=longlat +datum=NAD83 +no_defs
## # A tibble: 100 x 9
##      AREA PERIMETER COUNTYP010 STATE COUNTY         FIPS  STATE_FIPS SQUARE_MIL
##     <dbl>     <dbl>      <dbl> <chr> <chr>          <chr> <chr>           <dbl>
##  1 0.112       1.61      1994. NC    Ashe County    37009 37               429.
##  2 0.0616      1.35      1996. NC    Alleghany Cou… 37005 37               236.
##  3 0.140       1.77      1998. NC    Surry County   37171 37               539.
##  4 0.0891      1.43      1999. NC    Gates County   37073 37               342.
##  5 0.0687      4.43      2000. NC    Currituck Cou… 37053 37               264.
##  6 0.119       1.40      2001. NC    Stokes County  37169 37               456.
##  7 0.0626      2.11      2002. NC    Camden County  37029 37               241.
##  8 0.115       1.46      2003. NC    Warren County  37185 37               444.
##  9 0.143       2.40      2004. NC    Northampton C… 37131 37               551.
## 10 0.0925      1.81      2005. NC    Hertford Coun… 37091 37               356.
## # ... with 90 more rows, and 1 more variable: geometry <MULTIPOLYGON [°]>
```
…
## (Fake) Data from Annearundel County, Maryland

```r
(ac = st_read("data/gis/Annearundel/AnneArundelN.shp", quiet=TRUE) %>% tbl_df() %>% st_sf())
```

```
## Simple feature collection with 56 features and 7 fields
## geometry type:  MULTIPOLYGON
## dimension:      XY
## bbox:           xmin: 413828 ymin: 146220 xmax: 441950.6 ymax: 174397.2
## epsg (SRID):    NA
## proj4string:    +proj=lcc +lat_1=38.3 +lat_2=39.45 +lat_0=37.66666666666666 +lon_0=-77 +x_0=400000 +y_0=0 +ellps=GRS80 +towgs84=0,0,0,0,0,0,0 +units=m +no_defs
## # A tibble: 56 x 8
##    E2014_R E2014_D E2016_R E2016_D Population       id DISTRICT
##      <int>   <int>   <int>   <int>      <int>    <dbl>    <int>
##  1      48      52      64      36       6122 3702100.        3
##  2      65      35      57      43       9154 3702201.        2
##  3      44      56      58      42      15458 3702202.        3
##  4      55      45      65      35       2424 3702203.        3
##  5      48      52      44      56        430 3702800.        3
##  6      42      58      49      51       4918 3730203.        5
##  7      62      38      52      48       5486 3730204.        5
##  8      48      52      46      54       3093 3730300.        5
##  9      40      60      39      61       4137 3730401.        6
## 10      35      65      56      44       5843 3730402.        6
## # ... with 46 more rows, and 1 more variable: geometry <MULTIPOLYGON [m]>
```
…
