Bigish data
…
---

## Fixing column names

```r
library(stringr)
names(nyc) = str_replace_all(names(nyc), " ", "_")
nyc

## # A tibble: 9,100,278 x 43
##    Summons_Number Plate_ID Registration_State Plate_Type Issue_Date Violation_Code
##             <dbl>    <chr>              <chr>      <chr>      <chr>          <int>
##  1     1361929741  FCJ5493                 NY        PAS 12/18/1970             20
##  2     1366962000  63540MC                 NY        COM 02/02/1971             46
##  3     1356906515  GFM1421                 NY        PAS 09/18/1971             40
##  4     1342296217  FYM5117                 NY        SRF 09/18/1971             21
##  5     1342296199  95V6675                 TX        PAS 09/18/1971             21
##  6     1342296187  GCY4187                 NY        SRF 09/18/1971             21
##  7     1337077380  18972BB                 NY        999 10/10/1971             14
##  8     1364523796  WNJ4730                 VA        PAS 04/05/1973             14
##  9     1359914924  68091JZ                 NY        COM 07/22/1973             46
## 10     1355498326  EWV4127                 NY        PAS 08/12/1973             21
## # ... with 9,100,268 more rows, and 37 more variables: Vehicle_Body_Type <chr>,
## #   Vehicle_Make <chr>, Issuing_Agency <chr>, Street_Code1 <int>, Street_Code2 <int>,
## #   Street_Code3 <int>, Vehicle_Expiration_Date <int>, Violation_Location <chr>,
## #   Violation_Precinct <int>, Issuer_Precinct <int>, Issuer_Code <int>, Issuer_Command <chr>,
## #   Issuer_Squad <chr>, Violation_Time <chr>, Time_First_Observed <chr>,
## #   Violation_County <chr>, Violation_In_Front_Of_Or_Opposite <chr>, House_Number <chr>,
## #   Street_Name <chr>, Intersecting_Street <chr>, Date_First_Observed <int>,
## #   Law_Section <int>, Sub_Division <chr>, Violation_Legal_Code <int>,
## #   Days_Parking_In_Effect <chr>, From_Hours_In_Effect <chr>, To_Hours_In_Effect <chr>,
…
---

## Simplifying 

There is a lot of variables we won't care about for the time being, so lets make life easier by selecting a subset of columns.

```r
(nyc %<>% 
  select(Registration_State:Issuing_Agency, 
         Violation_Location, Violation_Precinct, Violation_Time,
         House_Number:Intersecting_Street, Vehicle_Color))

## # A tibble: 9,100,278 x 14
##    Registration_State Plate_Type Issue_Date Violation_Code Vehicle_Body_Type Vehicle_Make
##                 <chr>      <chr>      <chr>          <int>             <chr>        <chr>
##  1                 NY        PAS 12/18/1970             20              SUBN          GMC
##  2                 NY        COM 02/02/1971             46              DELV        FRUEH
##  3                 NY        PAS 09/18/1971             40               SDN        MAZDA
##  4                 NY        SRF 09/18/1971             21              SUBN        NISSA
##  5                 TX        PAS 09/18/1971             21              <NA>          GMC
##  6                 NY        SRF 09/18/1971             21               VAN         FORD
##  7                 NY        999 10/10/1971             14               BUS        INTER
##  8                 VA        PAS 04/05/1973             14               SDN        TOYOT
##  9                 NY        COM 07/22/1973             46              DELV        TOYOT
## 10                 NY        PAS 08/12/1973             21              SUBN        ACURA
## # ... with 9,100,268 more rows, and 8 more variables: Issuing_Agency <chr>,
## #   Violation_Location <chr>, Violation_Precinct <int>, Violation_Time <chr>,
## #   House_Number <chr>, Street_Name <chr>, Intersecting_Street <chr>, Vehicle_Color <chr>
```
…
nyc %<>% mutate(Issue_Date = mdy(Issue_Date, tz="America/New_York"))
class(nyc$Issue_Date)

## [1] "Date"
```

---

## 

```r
nyc

## # A tibble: 9,100,278 × 14
##    Registration.State Plate.Type Issue_Date Violation.Code Vehicle.Body.Type Vehicle.Make
##                 <chr>      <chr>     <date>          <int>             <chr>        <chr>
## 1                  NY        PAS 1970-12-18             20              SUBN          GMC
## 2                  NY        COM 1971-02-02             46              DELV        FRUEH
## 3                  NY        PAS 1971-09-18             40               SDN        MAZDA
## 4                  NY        SRF 1971-09-18             21              SUBN        NISSA
## 5                  TX        PAS 1971-09-18             21                            GMC
## 6                  NY        SRF 1971-09-18             21               VAN         FORD
## 7                  NY        999 1971-10-10             14               BUS        INTER
## 8                  VA        PAS 1973-04-05             14               SDN        TOYOT
## 9                  NY        COM 1973-07-22             46              DELV        TOYOT
## 10                 NY        PAS 1973-08-12             21              SUBN        ACURA
## # ... with 9,100,268 more rows, and 8 more variables: Issuing.Agency <chr>,
## #   Violation.Location <int>, Violation.Precinct <int>, Violation.Time <chr>,
## #   House.Number <chr>, Street.Name <chr>, Intersecting.Street <chr>, Vehicle.Color <chr>
```
…
---

## 

```r
filter(nyc, Issue_Date >= mdy("1/1/2013"), Issue_Date <= mdy("12/31/2014"))

## # A tibble: 9,095,621 x 43
##    Summons_Number Plate_ID Registration_State Plate_Type Issue_Date Violation_Code Vehicle_Body_Type
##             <dbl>    <chr>              <chr>      <chr>     <dttm>          <int>             <chr>
##  1     1354300671   S28CMN                 NJ        PAS 2013-01-01             20              SUBN
##  2     1349345910   XTX057                 MI        PAS 2013-01-01             99               SDN
##  3     1268869855  GJK5565                 NY        PAS 2013-01-01             20              SUBN
##  4     1268869843  EPS8803                 NY        PAS 2013-01-01             20               SDN
##  5     1365149122  FWZ5341                 NY        SRF 2013-01-01             20               SDN
##  6     1364348044  EPE8859                 NY        PAS 2013-01-01             46              SUBN
##  7     1364348032  ERT3706                 NY        PAS 2013-01-01             62               SDN
##  8     1364838760  DPA3951                 NY        PAS 2013-01-01             98               SDN
##  9     1364832835  ETS1289                 NY        PAS 2013-01-01             71               SDN
## 10     1364805819  FGE4351                 NY        PAS 2013-01-01             71              SUBN
## # ... with 9,095,611 more rows, and 36 more variables: Vehicle_Make <chr>, Issuing_Agency <chr>,
## #   Street_Code1 <int>, Street_Code2 <int>, Street_Code3 <int>, Vehicle_Expiration_Date <int>,
## #   Violation_Location <chr>, Violation_Precinct <int>, Issuer_Precinct <int>, Issuer_Code <int>,
## #   Issuer_Command <chr>, Issuer_Squad <chr>, Violation_Time <chr>, Time_First_Observed <chr>,
## #   Violation_County <chr>, Violation_In_Front_Of_Or_Opposite <chr>, House_Number <chr>, Street_Name <chr>,
## #   Intersecting_Street <chr>, Date_First_Observed <int>, Law_Section <int>, Sub_Division <chr>,
## #   Violation_Legal_Code <int>, Days_Parking_In_Effect <chr>, From_Hours_In_Effect <chr>,
## #   To_Hours_In_Effect <chr>, Vehicle_Color <chr>, `Unregistered_Vehicle?` <int>, Vehicle_Year <int>,
## #   Meter_Number <chr>, Feet_From_Curb <int>, Violation_Post_Code <chr>, Violation_Description <chr>,
…
---

## 

```r
## # A tibble: 9,095,621 x 18
##    Registration_State Plate_Type Issue_Date Violation_Code Vehicle_Body_Type Vehicle_Make Issuing_Agency
##                 <chr>      <chr>     <date>          <int>             <chr>        <chr>          <chr>
##  1                 NJ        PAS 2013-01-01             20              SUBN        CHRYS              P
##  2                 MI        PAS 2013-01-01             99               SDN        TOYOT              P
##  3                 NY        PAS 2013-01-01             20              SUBN         FORD              P
##  4                 NY        PAS 2013-01-01             20               SDN        INFIN              P
##  5                 NY        SRF 2013-01-01             20               SDN        NISSA              P
##  6                 NY        PAS 2013-01-01             46              SUBN        CHRYS              P
##  7                 NY        PAS 2013-01-01             62               SDN        HYUND              P
##  8                 NY        PAS 2013-01-01             98               SDN        TOYOT              P
##  9                 NY        PAS 2013-01-01             71               SDN        TOYOT              P
## 10                 NY        PAS 2013-01-01             71              SUBN         FORD              P
## # ... with 9,095,611 more rows, and 11 more variables: Violation_Location <chr>, Violation_Precinct <int>,
## #   Violation_Time <chr>, House_Number <chr>, Street_Name <chr>, Intersecting_Street <chr>, Vehicle_Color <chr>,
## #   Issue_Day <int>, Issue_Month <dbl>, Issue_Year <dbl>, Issue_WDay <ord>
```
…
---

## Full query 

To force a full query and return a complete it is necessart to use the `collect` function.

```r
nyc_sql %>%
  select(Issue_Date, Issuing_Agency, Violation_Precinct, House_Number, Street_Name) %>%
  filter(Violation_Precinct >=1, Violation_Precinct <= 34) %>%
  group_by(Issuing_Agency, Violation_Precinct) %>%
  summarize(n=n()) %>%
  collect()

## # A tibble: 199 x 3
## # Groups:   Issuing_Agency [15]
##    Issuing_Agency Violation_Precinct     n
##             <chr>              <int> <int>
##  1              A                  1    13
##  2              A                  7     1
##  3              A                 10    24
##  4              A                 11     1
##  5              A                 14    47
##  6              A                 33    11
##  7              B                 25     2
##  8              C                  5    73
##  9              C                 13     7
## 10              D                  1     1
## # ... with 189 more rows
```
…
